{
  "version": 1,
  "company": "ABRA Software SK",
  "baseUrl": "https://igate.abra.eu/",
  "userPrefix": "Uživatelé G4/",
  "gcmSenderId": "757418032868",
  "notifications": [
    "notifications-sk-dfb94d"
  ],
  "decisions": [
    "decisions-sk-7bf6bc"
  ],
  "chartConfig": [
    {
      "titleCode":"rt",
      "title": "RT",
      "type": "bar",
      "dataSource": "https://igate.abra.eu/app/crm_watch/watches_04"
    },
    {
      "titleCode":"rt-year",
      "title": "RT 12 mesiacov",
      "type": "line",
      "dataSource": "https://igate.abra.eu/app/crm_watch/watches_08"
    },
    {
      "titleCode": "trzby",
      "title": "Tržby",
      "type": "bar",
      "dataSource": "https://igate.abra.eu/app/crm_watch/watches_05"
    },
    {
      "titleCode": "obj",
      "title": "Objednávky",
      "type": "bar",
      "dataSource": "https://igate.abra.eu/app/crm_watch/watches_06"
    },
    {
      "titleCode": "penize",
      "title": "Peniaze",
      "type": "bar",
      "dataSource": "https://igate.abra.eu/app/crm_watch/watches_07"
    },
    {
      "titleCode": "pohledavky",
      "title": "Pohľadávky",
      "type": "bar",
      "dataSource": "https://igate.abra.eu/app/crm_watch/watches_02"
    },
    {
      "titleCode": "zavazky",
      "title": "Záväzky",
      "type": "bar",
      "dataSource": "https://igate.abra.eu/app/crm_watch/watches_03"
    }
  ]
}
